DATE,OPP,OUTCOME,PtF,PA,MIN,PTS,REB,AST,FGM,FGA,FGP,m3p,a3p,P3P,FTM,FTA,FTP,BLK,STL,PF,TO
10/29/2014,@ SAC,W,95,77,37,24,10,5,7,17,0.412,2,9,0.222,8,9,0.889,0,6,5,4
11/1/2014,vsLAL,W,127,104,34,31,5,10,10,19,0.526,3,8,0.375,8,8,1,0,3,3,2
11/2/2014,@ POR,W,95,90,31,21,5,6,6,18,0.333,1,5,0.2,8,8,1,0,2,1,3
11/5/2014,vsLAC,W,121,104,34,28,6,7,9,18,0.5,4,8,0.5,6,6,1,0,1,4,5
11/8/2014,@ HOU,W,98,87,40,34,9,5,13,19,0.684,6,9,0.667,2,2,1,0,4,2,5
11/9/2014,@ PHX,L,95,107,34,28,2,10,10,20,0.5,4,10,0.4,4,4,1,0,5,5,10
11/11/2014,vsSA,L,100,113,36,16,6,5,7,18,0.389,0,7,0,2,2,1,0,0,2,3
11/13/2014,vsBKN,W,107,99,32,17,3,5,6,12,0.5,3,7,0.429,2,2,1,0,0,5,3
11/15/2014,vsCHA,W,112,87,28,19,5,9,8,15,0.533,3,6,0.5,0,1,0,0,1,3,1
11/16/2014,@ LAL,W,136,115,30,30,4,15,10,19,0.526,5,9,0.556,5,5,1,0,1,0,3
11/21/2014,vsUTAH,W,101,88,25,8,5,10,3,9,0.333,2,6,0.333,0,0,0,0,2,2,4
11/23/2014,@ OKC,W,91,86,38,15,6,6,5,15,0.333,2,6,0.333,3,4,0.75,0,1,0,1
11/25/2014,@ MIA,W,114,97,37,40,6,7,12,19,0.632,8,11,0.727,8,9,0.889,1,3,2,2
11/26/2014,@ ORL,W,111,96,24,28,5,8,9,13,0.692,6,8,0.75,4,5,0.8,0,0,1,1
11/28/2014,@ CHA,W,106,101,32,26,4,6,9,20,0.45,1,10,0.1,7,7,1,2,1,4,4
11/30/2014,@ DET,W,104,93,28,16,3,10,5,9,0.556,1,3,0.333,5,6,0.833,0,1,2,1
12/2/2014,vsORL,W,98,97,36,22,4,5,8,17,0.471,3,9,0.333,3,3,1,0,0,2,4
12/4/2014,vsNO,W,112,85,31,19,3,11,8,17,0.471,3,6,0.5,0,0,0,1,4,0,2
12/6/2014,@ CHI,W,112,102,36,19,6,7,5,14,0.357,1,5,0.2,8,9,0.889,0,1,2,3
12/8/2014,@ MIN,W,102,86,31,21,4,7,10,20,0.5,1,7,0.143,0,0,0,1,3,3,3
12/10/2014,vsHOU,W,105,93,37,20,7,7,8,15,0.533,3,5,0.6,1,1,1,0,0,3,4
12/13/2014,@ DAL,W,105,98,37,29,3,8,9,22,0.409,3,11,0.273,8,9,0.889,0,2,1,1
12/14/2014,@ NO,W,128,122,40,34,7,7,11,21,0.524,6,10,0.6,6,6,1,0,1,1,6
12/16/2014,@ MEM,L,98,105,39,19,7,6,9,25,0.36,1,10,0.1,0,0,0,0,4,2,3
12/18/2014,vsOKC,W,114,109,42,34,7,9,14,24,0.583,5,12,0.417,1,1,1,1,4,0,4
12/22/2014,vsSAC,W,128,108,26,12,2,11,5,12,0.417,1,5,0.2,1,1,1,0,3,1,1
12/23/2014,@ LAL,L,105,115,30,22,2,6,10,14,0.714,2,5,0.4,0,0,0,0,3,0,7
12/25/2014,@ LAC,L,86,100,36,14,9,7,5,12,0.417,1,5,0.2,3,4,0.75,0,2,3,5
12/27/2014,vsMIN,W,110,97,31,25,3,6,9,18,0.5,4,9,0.444,3,4,0.75,0,3,3,3
12/30/2014,vsPHI,W,126,86,27,13,3,9,4,7,0.571,3,6,0.5,2,2,1,0,3,3,3
1/2/2015,vsTOR,W,126,105,34,32,5,12,10,18,0.556,5,11,0.455,7,7,1,0,1,3,0
1/5/2015,vsOKC,W,117,91,31,19,9,6,7,14,0.5,1,4,0.25,4,4,1,0,4,2,2
1/7/2015,vsIND,W,117,102,35,21,3,15,8,17,0.471,4,8,0.5,1,1,1,0,4,5,5
1/9/2015,vsCLE,W,112,94,35,23,1,10,8,15,0.533,3,8,0.375,4,4,1,0,2,1,1
1/13/2015,@ UTAH,W,116,105,29,27,2,11,10,16,0.625,4,9,0.444,3,3,1,0,0,2,2
1/14/2015,vsMIA,W,104,89,32,32,5,3,11,19,0.579,7,10,0.7,3,5,0.6,0,2,1,3
1/16/2015,@ OKC,L,115,127,31,19,3,6,6,13,0.462,2,6,0.333,5,5,1,0,2,2,6
1/17/2015,@ HOU,W,131,106,33,27,7,11,9,18,0.5,2,8,0.25,7,8,0.875,1,3,0,2
1/19/2015,vsDEN,W,122,79,25,20,1,8,7,13,0.538,2,5,0.4,4,4,1,2,1,2,1
1/21/2015,vsHOU,W,126,113,34,22,3,10,7,12,0.583,3,5,0.6,5,6,0.833,0,1,3,6
1/23/2015,vsSAC,W,126,101,29,10,4,11,3,11,0.273,2,7,0.286,2,2,1,0,2,0,6
1/25/2015,vsBOS,W,114,111,33,22,4,11,6,16,0.375,1,5,0.2,9,9,1,0,2,1,3
1/27/2015,vsCHI,L,111,113,43,21,4,9,9,23,0.391,2,9,0.222,1,1,1,0,3,3,3
1/30/2015,@ UTAH,L,100,110,34,32,7,6,10,22,0.455,5,11,0.455,7,9,0.778,0,3,1,2
1/31/2015,vsPHX,W,106,87,37,25,4,7,9,23,0.391,4,9,0.444,3,3,1,1,2,2,1
2/3/2015,@ SAC,W,121,96,29,23,5,9,6,15,0.4,2,6,0.333,9,10,0.9,0,3,2,2
2/4/2015,vsDAL,W,128,114,37,51,4,4,16,26,0.615,10,16,0.625,9,11,0.818,0,1,3,3
2/6/2015,@ ATL,L,116,124,36,26,2,9,8,19,0.421,4,9,0.444,6,7,0.857,2,2,3,1
2/7/2015,@ NY,W,106,92,31,22,6,0,8,18,0.444,5,9,0.556,1,3,0.333,0,2,0,3
2/9/2015,@ PHI,W,89,84,32,20,5,6,7,20,0.35,3,12,0.25,3,4,0.75,0,3,2,1
2/11/2015,@ MIN,W,94,91,36,25,5,8,9,23,0.391,2,10,0.2,5,5,1,0,3,1,3
2/20/2015,vsSA,W,110,99,32,25,4,11,8,17,0.471,4,8,0.5,5,5,1,0,4,2,2
2/22/2015,@ IND,L,98,104,0,0,0,0,0,0,0,0,0,0,0,0,0,0,0,0,0
2/24/2015,@ WSH,W,114,107,34,32,0,8,11,18,0.611,5,9,0.556,5,5,1,0,2,1,0
2/26/2015,@ CLE,L,99,110,34,18,3,6,5,17,0.294,3,9,0.333,5,5,1,0,1,3,4
2/27/2015,@ TOR,W,113,89,25,22,6,5,8,13,0.615,3,4,0.75,3,3,1,0,2,0,2
3/1/2015,@ BOS,W,106,101,38,37,4,5,14,22,0.636,5,8,0.625,4,4,1,0,1,1,5
3/2/2015,@ BKN,L,108,110,29,26,2,7,8,16,0.5,6,12,0.5,4,4,1,0,1,4,4
3/4/2015,vsMIL,W,102,93,37,19,1,11,6,16,0.375,6,13,0.462,1,2,0.5,2,2,3,5
3/6/2015,vsDAL,W,104,89,31,22,2,7,6,11,0.545,5,8,0.625,5,6,0.833,1,2,2,3
3/8/2015,vsLAC,W,106,98,32,12,1,4,3,9,0.333,2,2,1,4,4,1,0,3,1,4
3/9/2015,@ PHX,W,98,80,36,36,6,5,14,24,0.583,7,13,0.538,1,2,0.5,0,4,3,4
3/11/2015,vsDET,W,105,98,34,9,5,11,4,15,0.267,1,7,0.143,0,0,0,0,1,1,3
3/13/2015,@ DEN,L,103,114,0,0,0,0,0,0,0,0,0,0,0,0,0,0,0,0,0
3/14/2015,vsNY,W,125,94,27,25,3,11,8,15,0.533,6,10,0.6,3,3,1,0,3,2,1
3/16/2015,vsLAL,W,108,105,33,19,4,9,5,14,0.357,2,6,0.333,7,7,1,0,3,2,6
3/18/2015,vsATL,W,114,95,30,16,4,12,4,11,0.364,2,6,0.333,6,6,1,0,0,1,4
3/20/2015,vsNO,W,112,96,27,16,2,11,4,17,0.235,2,10,0.2,6,6,1,0,0,0,3
3/21/2015,vsUTAH,W,106,91,32,24,3,3,8,18,0.444,3,6,0.5,5,5,1,0,3,0,0
3/23/2015,vsWSH,W,107,76,28,24,5,6,8,14,0.571,5,8,0.625,3,3,1,0,2,1,2
3/24/2015,@ POR,W,122,108,35,33,2,10,13,22,0.591,5,9,0.556,2,2,1,0,1,2,2
3/27/2015,@ MEM,W,107,84,34,38,3,10,12,22,0.545,8,12,0.667,6,6,1,1,3,3,4
3/28/2015,@ MIL,W,108,95,30,25,4,6,8,13,0.615,6,9,0.667,3,3,1,0,1,4,6
3/31/2015,@ LAC,W,110,106,36,27,1,4,8,15,0.533,4,6,0.667,7,7,1,0,1,3,3
4/2/2015,vsPHX,W,107,106,34,28,8,5,10,22,0.455,6,11,0.545,2,2,1,0,0,3,6
4/4/2015,@ DAL,W,123,110,27,11,4,3,4,12,0.333,1,4,0.25,2,3,0.667,0,1,1,1
4/5/2015,@ SA,L,92,107,30,24,4,6,9,17,0.529,5,10,0.5,1,2,0.5,0,1,2,4
4/7/2015,@ NO,L,100,103,35,25,6,9,9,18,0.5,5,8,0.625,2,2,1,0,1,3,2
4/9/2015,vsPOR,W,116,105,35,45,2,10,17,23,0.739,8,13,0.615,3,3,1,0,0,2,4
4/11/2015,vsMIN,W,110,101,35,34,4,7,11,21,0.524,5,11,0.455,7,8,0.875,0,4,1,3
4/13/2015,vsMEM,W,111,107,29,15,4,8,6,10,0.6,3,6,0.5,0,0,0,0,1,2,3
4/13/2015,vsDEN,W,133,126,19,10,4,7,4,10,0.4,2,4,0.5,0,0,0,0,5,1,2